Three models
…
Training data contained 9949 data points and 9949 incomplete rows. 

Operations:

Variable mutation for tst_dt [trained]
Novel factor level assignment for gndr, ethnic_cd, ... [trained]
Unknown factor level assignment for gndr, ethnic_cd, ... [trained]
Sparse, unbalanced variable filter removed calc_admn_cd, ... [trained]
Median Imputation for enrl_grd, tst_dt, lat, ... [trained]
Dummy variables from gndr, ethnic_cd, tst_bnch, sp_ed_fg, ... [trained]
Sparse, unbalanced variable filter removed gndr_new, ... [trained]
Interactions with lat:lon [trained]

# A tibble: 9,949 x 37
       id attnd_dist_inst… attnd_schl_inst… enrl_grd tst_dt
    <dbl>            <dbl>            <dbl>    <dbl>  <dbl>
 1 188408             1970              219        3 1.52e9
 2 226880             2252             1208        4 1.53e9
 3   3436             2243             1176        5 1.53e9
 4  48828             2043              390        4 1.52e9
 5 252482             2087              574        3 1.53e9
 6 226888             1922             1287        8 1.53e9
 7  70637             2197             1012        6 1.53e9
 8 170356             2239             4641        4 1.53e9
 9 158918             2142              763        3 1.53e9
10 185543             2142              754        4 1.53e9
# … with 9,939 more rows, and 32 more variables:
#   partic_dist_inst_id <dbl>, partic_schl_inst_id <dbl>,
#   ncessch <dbl>, lat <dbl>, lon <dbl>,
#   p_american_indian_alaska_native <dbl>, p_asian <dbl>,
#   p_hispanic_latino <dbl>, p_white <dbl>, p_multiracial <dbl>,
#   free_lunch_qualified <dbl>, reduced_price_lunch_qualified <dbl>,
#   no_category_codes <dbl>, n <int>, prop_frl <dbl>,
#   prop_reduced_lunch <dbl>, score <dbl>, gndr_M <dbl>,
#   ethnic_cd_H <dbl>, ethnic_cd_M <dbl>, ethnic_cd_W <dbl>,
…
Model Construction

The three linear models presented in the course represent penalized regression models, which shrink the coefficients towards zero in order to reduce the model’s overall variance.

Ridge Regression Model: Shrinks coefficients of correlated predictors toward each other, which is beneficial when the purpose of the model is to keep all predictors.

Lasso Regression Model: Selects one predictor to model the outcome while ignoring other predictors, which is beneficial to identifying the largest and most consistent predictor in data with may predictors.

Elastic Net Regression Model: Combines the two types of penalties, which is better suited for multicollinearity.

Instead of selecting one of the specific penalties to run our linear model, we opted to use cross-validation to find the optimal tuning parameters with a grid search. We specifically tuned the penalty and mixture parameters of the linear model. Our grid search utilized a regular grid with 10 possible values for the penalty and 5 possible values for the mixture, which produced 50 models per fold, resulting in a total of 500 models.

74.062 sec elapsed

# A tibble: 100 x 8
       penalty mixture .metric .estimator   mean     n std_err .config
         <dbl>   <dbl> <chr>   <chr>       <dbl> <int>   <dbl> <chr>  
 1    1.00e-10       0 rmse    standard   90.4      10 0.655   Model01
 2    1.00e-10       0 rsq     standard    0.402    10 0.00692 Model01
 3    1.29e- 9       0 rmse    standard   90.4      10 0.655   Model02
 4    1.29e- 9       0 rsq     standard    0.402    10 0.00692 Model02
 5    1.67e- 8       0 rmse    standard   90.4      10 0.655   Model03
 6    1.67e- 8       0 rsq     standard    0.402    10 0.00692 Model03
 7    2.15e- 7       0 rmse    standard   90.4      10 0.655   Model04
 8    2.15e- 7       0 rsq     standard    0.402    10 0.00692 Model04
 9    2.78e- 6       0 rmse    standard   90.4      10 0.655   Model05
10    2.78e- 6       0 rsq     standard    0.402    10 0.00692 Model05
# … with 90 more rows
…
# Resampling results
# Monte Carlo cross-validation (0.75/0.25) with 1 resamples  
# A tibble: 1 x 6
  splits      id        .metrics    .notes    .predictions   .workflow
  <list>      <chr>     <list>      <list>    <list>         <list>   
1 <split [9.… train/te… <tibble [2… <tibble … <tibble [3,31… <workflo…

# A tibble: 2 x 3
  .metric .estimator .estimate
  <chr>   <chr>          <dbl>
1 rmse    standard      91.1  
2 rsq     standard       0.365

# A tibble: 3,314 x 3
   .pred  .row score
   <dbl> <int> <dbl>
 1 2463.     2  2382
 2 2711.     3  2533
 3 2556.     4  2641
 4 2580.    11  2429
 5 2463.    18  2390
 6 2403.    27  2246
 7 2628.    29  2680
 8 2580.    37  2625
 9 2383.    41  2366
10 2628.    42  2592
# … with 3,304 more rows
…
11.571 sec elapsed

[[1]]
# A tibble: 2 x 3
  .metric .estimator .estimate
  <chr>   <chr>          <dbl>
1 rmse    standard      88.7  
2 rsq     standard       0.399

Make Final Predictions

To generate final predictions, the finalized random forest workflow was fit to the training data (note: the trained data set was joined with the FRL and ethnicities data sets as outlined in the data description blog post).The ensuing fit was then applied to the test data set to generate final predictions.

# A tibble: 3,314 x 1
   .pred
   <dbl>
 1 2455.
 2 2712.
 3 2569.
 4 2574.
 5 2454.
 6 2446.
 7 2599.
 8 2588.
 9 2403.
10 2555.
# … with 3,304 more rows
