Score prediction: Description of the dataset
…
Training data contained 9949 data points and 9949 incomplete rows. 

Operations:

Variable mutation for tst_dt [trained]
Novel factor level assignment for gndr, ethnic_cd, ... [trained]
Unknown factor level assignment for gndr, ethnic_cd, ... [trained]
Sparse, unbalanced variable filter removed calc_admn_cd, ... [trained]
Median Imputation for enrl_grd, tst_dt, lat, ... [trained]
Dummy variables from gndr, ethnic_cd, tst_bnch, sp_ed_fg, ... [trained]
Sparse, unbalanced variable filter removed gndr_new, ... [trained]
Interactions with lat:lon [trained]

# A tibble: 9,949 x 37
       id attnd_dist_inst attnd_schl_inst enrl_grd tst_dt
    <dbl>            <dbl>            <dbl>    <dbl>  <dbl>
 1 188408             1970              219        3 1.52e9
 2 226880             2252             1208        4 1.53e9
 3   3436             2243             1176        5 1.53e9
 4  48828             2043              390        4 1.52e9
 5 252482             2087              574        3 1.53e9
 6 226888             1922             1287        8 1.53e9
 7  70637             2197             1012        6 1.53e9
 8 170356             2239             4641        4 1.53e9
 9 158918             2142              763        3 1.53e9
10 185543             2142              754        4 1.53e9
#  with 9,939 more rows, and 32 more variables:
#   partic_dist_inst_id <dbl>, partic_schl_inst_id <dbl>,
#   ncessch <dbl>, lat <dbl>, lon <dbl>,
#   p_american_indian_alaska_native <dbl>, p_asian <dbl>,
#   p_hispanic_latino <dbl>, p_white <dbl>, p_multiracial <dbl>,
#   free_lunch_qualified <dbl>, reduced_price_lunch_qualified <dbl>,
#   no_category_codes <dbl>, n <int>, prop_frl <dbl>,
#   prop_reduced_lunch <dbl>, score <dbl>, gndr_M <dbl>,
#   ethnic_cd_H <dbl>, ethnic_cd_M <dbl>, ethnic_cd_W <dbl>,
…
